// Jest Snapshot v1, https://goo.gl/fbAQLP

exports[`Dropdown should match snapshot 1`] = `
<select
  className="form-control"
  defaultValue={undefined}
  onChange={[Function]}
>
  <option
    value="val"
  />
  <option
    value="val2"
  />
</select>
`;
